2.4 Data manipulation | Applied Epidemiology in One Health Research
…
The subsequent arguments describe what to do with the data frame, using the variable names (without quotes).

The result is a new data frame.

In the newest update of dplyr package (version 1.0.4), two new functions if_all() and if_any() were introduced, accompany with the performance improvements of across(). Together these properties make it easy to chain together multiple simple steps to achieve a complex result. Let’s dive in and see how these verbs work.

Filter rows with filter()

filter() allows you to subset observations based on their values. If you are familiar with filter in Excel, this function works same like this. The output of function is a dataframe. For example, if you want to subset a data with calves who are male, age at admission greater or equal than 5 days, the breed is Hereford, Angus or Simental, you can do like this. In total, we have 21 calves fulfil our filter condition.

lb_df |>
  dplyr::filter(sex == "Male", age >= 5, breed %in% c("Hereford", "Angus", "Simental"))

# A tibble: 21 x 14
    case   age breed sex   attd   dehy eye    jnts post  pulse  resp  temp umb  
   <dbl> <dbl> <fct> <fct> <fct> <dbl> <fct> <dbl> <fct> <dbl> <dbl> <dbl> <fct>
 1  1670     5 Here~ Male  unre~  12   <NA>      0 late~    NA    NA  37.6 No   
 2  3600    19 Here~ Male  depr~   8   <NA>      0 stan~   140    32  39.3 No   
 3  1599     7 Here~ Male  depr~   4   No        0 stan~   126    20  39   No   
 4  1619     7 Here~ Male  depr~   7.5 No        0 stan~   110    32  37   Yes  
 5  1586     8 Here~ Male  unre~  10   No        0 late~    88    36  36   No   
 6  5206    12 Here~ Male  brig~   9   No        0 stan~    88    24  37.8 No   
 7  7173     7 Here~ Male  depr~  10   No        0 ster~   120    42  39.5 No   
 8  3021     6 Here~ Male  depr~   8   Yes       1 ster~   108    24  39.3 No   
 9  4938    18 Here~ Male  depr~   9   No        0 ster~   100    40  36.5 No   
10  9005     7 Here~ Male  unre~  NA   Yes       0 late~   124    60  NA   No   
# ... with 11 more rows, and 1 more variable: sepsis <fct>

Arrange rows with arrange()

arrange() takes a data frame and a set of column names (or more complicated expressions) to order by. If you provide more than one column name, each additional column will be used to break ties in the values of preceding column. For example, if you want to sort case number in descending order:

lb_df |>
  dplyr::arrange(desc(case))

# A tibble: 254 x 14
    case   age breed sex   attd   dehy eye    jnts post  pulse  resp  temp umb  
   <dbl> <dbl> <fct> <fct> <fct> <dbl> <fct> <dbl> <fct> <dbl> <dbl> <dbl> <fct>
 1 10354     5 Hols~ Fema~ brig~   7   No        0 stan~   150    28  39.7 No   
 2 10222     8 Hols~ Fema~ depr~   5   No        0 ster~   100    60  38.8 No   
 3 10179     3 Hols~ Fema~ depr~   6.5 No        0 late~    85    90  39.6 No   
 4 10158     5 Hols~ Fema~ depr~  15   No        0 ster~   100    42  39.1 Yes  
 5  9907     8 Here~ Male  depr~  10   No        0 late~   100    40  37.1 No   
 6  9869    11 Cros~ Male  depr~   5   No        0 stan~   100    40  38.5 No   
 7  9864    21 Hols~ Male  depr~   8   No        0 ster~   138    54  37.9 No   
 8  9805     3 Other Fema~ depr~   5   No        0 ster~   132    28  39   No   
 9  9773     6 Cros~ Fema~ unre~   9   No        0 late~    80    84  38.4 Yes  
10  9761    11 Hols~ Fema~ depr~   8   No        0 late~   120    80  37.8 No   
# ... with 244 more rows, and 1 more variable: sepsis <fct>

Select columns with select()

It’s not uncommon to get datasets with hundreds or even thousands of variables. In this case, the first challenge is often narrowing in on the variables you’re actually interested in. select() allows you to rapidly zoom in on a useful subset using operations based on the names of the variables.

Select columns by name

lb_df |>
  dplyr::select(case, breed, sex, attd, post, dehy, temp, sepsis)

# A tibble: 254 x 8
    case breed      sex    attd                   post      dehy  temp sepsis
   <dbl> <fct>      <fct>  <fct>                  <fct>    <dbl> <dbl> <fct> 
 1  1670 Hereford   Male   unresponsive, comatose lateral   12    37.6 No    
 2  8124 Holstein   Female depressed              standing  13.5  39.2 No    
 3  6954 Angus      Male   unresponsive, comatose lateral   NA    NA   Yes   
 4  2737 Shorthorn  Male   depressed              standing   5    38.6 No    
 5  5341 Charolais  Female depressed              sternal    0    38.6 Yes   
 6  6749 Simmental  Female depressed              standing   5.5  39.6 No    
 7  3234 Limousin   Female unresponsive, comatose lateral    7    39   Yes   
 8  2325 Crossbreed Female depressed              standing   7    35   No    
 9  2925 Other      Female depressed              standing   5    39.5 No    
10  7108 Hereford   Female unresponsive, comatose lateral   10    37.8 No    
# ... with 244 more rows
…
ends_with(“xyz”) : matches names that end with “xyz”.

contains(c(“ijk”, “xyz”)) : matches names that contain “ijk” or “xyz”.

matches(“(.)\1”) : selects variables that match a regular expression. This one matches any variables that contain repeated characters. You’ll learn more about regular expressions in strings.

num_range(“x”, 1:3) : matches x1, x2 and x3.

Rename variable

lb_df |>
  dplyr::rename(id = case)

# A tibble: 254 x 14
      id   age breed sex   attd   dehy eye    jnts post  pulse  resp  temp umb  
   <dbl> <dbl> <fct> <fct> <fct> <dbl> <fct> <dbl> <fct> <dbl> <dbl> <dbl> <fct>
 1  1670     5 Here~ Male  unre~  12   <NA>      0 late~    NA    NA  37.6 No   
 2  8124     3 Hols~ Fema~ depr~  13.5 No        0 stan~   130   120  39.2 No   
 3  6954     2 Angus Male  unre~  NA   Yes       0 late~    NA    NA  NA   Yes  
 4  2737     3 Shor~ Male  depr~   5   No        0 stan~   132    40  38.6 No   
 5  5341     3 Char~ Fema~ depr~   0   No        0 ster~   128    48  38.6 Yes  
 6  6749    10 Simm~ Fema~ depr~   5.5 No        0 stan~   160    48  39.6 No   
 7  3234     4 Limo~ Fema~ unre~   7   No        1 late~   180    84  39   Yes  
 8  2325    14 Cros~ Fema~ depr~   7   No        0 stan~   100    20  35   No   
 9  2925     4 Other Fema~ depr~   5   No        0 stan~   150    52  39.5 No   
10  7108     8 Here~ Fema~ unre~  10   No        0 late~   120    68  37.8 No   
# ... with 244 more rows, and 1 more variable: sepsis <fct>

Another option is to use select() in conjunction with the everything() helper. This is useful if you have a handful of variables you’d like to move to the start of the data frame.

lb_df |>
  dplyr::select(sepsis, sex, everything())

# A tibble: 254 x 14
   sepsis sex    case   age breed attd   dehy eye    jnts post  pulse  resp
   <fct>  <fct> <dbl> <dbl> <fct> <fct> <dbl> <fct> <dbl> <fct> <dbl> <dbl>
 1 No     Male   1670     5 Here~ unre~  12   <NA>      0 late~    NA    NA
 2 No     Fema~  8124     3 Hols~ depr~  13.5 No        0 stan~   130   120
 3 Yes    Male   6954     2 Angus unre~  NA   Yes       0 late~    NA    NA
 4 No     Male   2737     3 Shor~ depr~   5   No        0 stan~   132    40
 5 Yes    Fema~  5341     3 Char~ depr~   0   No        0 ster~   128    48
 6 No     Fema~  6749    10 Simm~ depr~   5.5 No        0 stan~   160    48
 7 Yes    Fema~  3234     4 Limo~ unre~   7   No        1 late~   180    84
 8 No     Fema~  2325    14 Cros~ depr~   7   No        0 stan~   100    20
 9 No     Fema~  2925     4 Other depr~   5   No        0 stan~   150    52
10 No     Fema~  7108     8 Here~ unre~  10   No        0 late~   120    68
# ... with 244 more rows, and 2 more variables: temp <dbl>, umb <fct>
…
Add new variable with mutate()

Note: mutate() always adds new columns at the end of your dataset.

lb_df |>
  select(case:dehy) |> 
  mutate(
    agegr = case_when(age < 10 ~ "Group A",
                      age >= 10 & age < 15 ~ "Group B",
                      age >= 15 ~ "Group C"),
    new_breed = case_when(breed %in% c("Hereford", "Holstein", "Angus", "Shorthorn") ~ "Breed A",
                          breed %in% c("Charolais", "Simmental", "Limousin", "Crossbreed", "Other") ~ "Breed B"),
    test = ifelse((age + dehy) >= 20, "Yes", "No"))

# A tibble: 254 x 9
    case   age breed     sex    attd                 dehy agegr  new_breed test 
   <dbl> <dbl> <fct>     <fct>  <fct>               <dbl> <chr>  <chr>     <chr>
 1  1670     5 Hereford  Male   unresponsive, coma~  12   Group~ Breed A   No   
 2  8124     3 Holstein  Female depressed            13.5 Group~ Breed A   No   
 3  6954     2 Angus     Male   unresponsive, coma~  NA   Group~ Breed A   <NA> 
 4  2737     3 Shorthorn Male   depressed             5   Group~ Breed A   No   
 5  5341     3 Charolais Female depressed             0   Group~ Breed B   No   
 6  6749    10 Simmental Female depressed             5.5 Group~ Breed B   No   
 7  3234     4 Limousin  Female unresponsive, coma~   7   Group~ Breed B   No   
 8  2325    14 Crossbre~ Female depressed             7   Group~ Breed B   Yes  
 9  2925     4 Other     Female depressed             5   Group~ Breed B   No   
10  7108     8 Hereford  Female unresponsive, coma~  10   Group~ Breed A   No   
# ... with 244 more rows
…
